2016_fpga_preliminary/dump.vcd
$date
	Fri Sep 17 14:17:16 2021
$end
$version
	Icarus Verilog
$end
$timescale
	10ps
$end
$scope module testfixture $end
$var wire 1 ! lbp_valid $end
$var wire 8 " lbp_data [7:0] $end
$var wire 14 # lbp_addr [13:0] $end
$var wire 1 $ gray_req $end
$var wire 14 % gray_addr [13:0] $end
$var wire 1 & finish $end
$var reg 8 ' LBP_dbg [7:0] $end
$var reg 1 ( clk $end
$var reg 8 ) exp_dbg [7:0] $end
$var reg 8 * gray_data [7:0] $end
$var reg 1 + gray_ready $end
$var reg 1 , over $end
$var reg 1 - reset $end
$var reg 1 . result_compare $end
$var integer 32 / err [31:0] $end
$var integer 32 0 exp_num [31:0] $end
$var integer 32 1 i [31:0] $end
$var integer 32 2 times [31:0] $end
$scope module LBP $end
$var wire 1 ( clk $end
$var wire 8 3 gray_data [7:0] $end
$var wire 1 + gray_ready $end
$var wire 1 - reset $end
$var reg 1 & finish $end
$var reg 8 4 gc [7:0] $end
$var reg 14 5 gray_addr [13:0] $end
$var reg 1 $ gray_req $end
$var reg 8 6 i [7:0] $end
$var reg 14 7 lbp_addr [13:0] $end
$var reg 8 8 lbp_data [7:0] $end
$var reg 1 ! lbp_valid $end
$var reg 3 9 state [2:0] $end
$var reg 7 : x_count [6:0] $end
$var reg 7 ; y_count [6:0] $end
$upscope $end
$scope module u_lbp_mem $end
$var wire 1 ( clk $end
$var wire 14 < lbp_addr [13:0] $end
$var wire 8 = lbp_data [7:0] $end
$var wire 1 ! lbp_valid $end
$var integer 32 > i [31:0] $end
$upscope $end
$upscope $end
$enddefinitions $end
#0
$dumpvars
b100000000000000 >
bx =
bx <
bx ;
bx :
bx 9
bx 8
bx 7
bx 6
bx 5
bx 4
bx 3
b0 2
bx 1
b0 0
b0 /
0.
0-
0,
0+
bx *
bx )
0(
bx '
x&
bx %
x$
bx #
bx "
x!
$end
#625
1(
#1250
b101 9
0&
0!
0$
1-
0(
#1875
1(
#2500
0(
#3125
1(
#3750
bz *
bz 3
1+
0(
0-
#4375
b0 ;
b0 :
b0 9
1$
b0 %
b0 5
1(
#5000
b10100010 *
b10100010 3
0(
#5625
b1 ;
b1 %
b1 5
1(
#6250
b10100001 *
b10100001 3
0(
#6875
b10 ;
b10 %
b10 5
1(
#7500
0(
#8125
b11 ;
b11 %
b11 5
1(
#8750
b10011110 *
b10011110 3
0(
#9375
b100 ;
b100 %
b100 5
1(
#10000
b10011111 *
b10011111 3
0(
#10625
b101 ;
b101 %
b101 5
1(
#11250
b10011100 *
b10011100 3
0(
#11875
b110 ;
b110 %
b110 5
1(
#12500
b10011011 *
b10011011 3
0(
#13125
b111 ;
b111 %
b111 5
1(
#13750
0(
#14375
b1000 ;
b1000 %
b1000 5
1(
#15000
b10011100 *
b10011100 3
0(
#15625
b1001 ;
b1001 %
b1001 5
1(
#16250
b10100011 *
b10100011 3
0(
#16875
b1010 ;
b1010 %
b1010 5
1(
#17500
b10101000 *
b10101000 3
0(
#18125
b1011 ;
b1011 %
b1011 5
1(
#18750
b10101101 *
b10101101 3
0(
#19375
b1100 ;
b1100 %
b1100 5
1(
#20000
b10101100 *
b10101100 3
0(
#20625
b1101 ;
b1101 %
b1101 5
1(
#21250
b10100100 *
b10100100 3
0(
#21875
b1110 ;
b1110 %
b1110 5
1(
#22500
b10010100 *
b10010100 3
0(
#23125
b1111 ;
b1111 %
b1111 5
1(
#23750
b1110110 *
b1110110 3
0(
#24375
b10000 ;
b10000 %
b10000 5
1(
#25000
b1100000 *
b1100000 3
0(
#25625
b10001 ;
b10001 %
b10001 5
1(
#26250
0(
#26875
b10010 ;
b10010 %
b10010 5
1(
#27500
b1100111 *
b1100111 3
0(
#28125
b10011 ;
b10011 %
b10011 5
1(
#28750
b1101010 *
b1101010 3
0(
#29375
b10100 ;
b10100 %
b10100 5
1(
#30000
b1101011 *
b1101011 3
0(
#30625
b10101 ;
b10101 %
b10101 5
1(
#31250
b1101100 *
b1101100 3
0(
#31875
b10110 ;
b10110 %
b10110 5
1(
#32500
0(
#33125
b10111 ;
b10111 %
b10111 5
1(
#33750
b1101101 *
b1101101 3
0(
#34375
b11000 ;
b11000 %
b11000 5
1(
#35000
0(
#35625
b11001 ;
b11001 %
b11001 5
1(
#36250
b1101010 *
b1101010 3
0(
#36875
b11010 ;
b11010 %
b11010 5
1(
#37500
b1110000 *
b1110000 3
0(
#38125
b11011 ;
b11011 %
b11011 5
1(
#38750
b1110110 *
b1110110 3
0(
#39375
b11100 ;
b11100 %
b11100 5
1(
#40000
b1110111 *
b1110111 3
0(
#40625
b11101 ;
b11101 %
b11101 5
1(
#41250
b1111011 *
b1111011 3
0(
#41875
b11110 ;
b11110 %
b11110 5
1(
#42500
b1111111 *
b1111111 3
0(
#43125
b11111 ;
b11111 %
b11111 5
1(
#43750
b10000001 *
b10000001 3
0(
#44375
b100000 ;
b100000 %
b100000 5
1(
#45000
b10000011 *
b10000011 3
0(
#45625
b100001 ;
b100001 %
b100001 5
1(
#46250
b10000001 *
b10000001 3
0(
#46875
b100010 ;
b100010 %
b100010 5
1(
#47500
b10000110 *
b10000110 3
0(
#48125
b100011 ;
b100011 %
b100011 5
1(
#48750
b10000010 *
b10000010 3
0(
#49375
b100100 ;
b100100 %
b100100 5
1(
#50000
b10000001 *
b10000001 3
0(
#50625
b100101 ;
b100101 %
b100101 5
1(
#51250
b10000011 *
b10000011 3
0(
#51875
b100110 ;
b100110 %
b100110 5
1(
#52500
b10000001 *
b10000001 3
0(
#53125
b100111 ;
b100111 %
b100111 5
1(
#53750
b10000110 *
b10000110 3
0(
#54375
b101000 ;
b101000 %
b101000 5
1(
#55000
b10000100 *
b10000100 3
0(
#55625
b101001 ;
b101001 %
b101001 5
1(
#56250
b10000110 *
b10000110 3
0(
#56875
b101010 ;
b101010 %
b101010 5
1(
#57500
b10000101 *
b10000101 3
0(
#58125
b101011 ;
b101011 %
b101011 5
1(
#58750
0(
#59375
b101100 ;
b101100 %
b101100 5
1(
#60000
b10000110 *
b10000110 3
0(
#60625
b101101 ;
b101101 %
b101101 5
1(
#61250
b10000100 *
b10000100 3
0(
#61875
b101110 ;
b101110 %
b101110 5
1(
#62500
b10000111 *
b10000111 3
0(
#63125
b101111 ;
b101111 %
b101111 5
1(
#63750
b10000101 *
b10000101 3
0(
#64375
b110000 ;
b110000 %
b110000 5
1(
#65000
b10000110 *
b10000110 3
0(
#65625
b110001 ;
b110001 %
b110001 5
1(
#66250
b10001000 *
b10001000 3
0(
#66875
b110010 ;
b110010 %
b110010 5
1(
#67500
b10000111 *
b10000111 3
0(
#68125
b110011 ;
b110011 %
b110011 5
1(
#68750
b10000110 *
b10000110 3
0(
#69375
b110100 ;
b110100 %
b110100 5
1(
#70000
b10001000 *
b10001000 3
0(
#70625
b110101 ;
b110101 %
b110101 5
1(
#71250
b10000100 *
b10000100 3
0(
#71875
b110110 ;
b110110 %
b110110 5
1(
#72500
b10000011 *
b10000011 3
0(
#73125
b110111 ;
b110111 %
b110111 5
1(
#73750
0(
#74375
b111000 ;
b111000 %
b111000 5
1(
#75000
b10000100 *
b10000100 3
0(
#75625
b111001 ;
b111001 %
b111001 5
1(
#76250
b10000101 *
b10000101 3
0(
#76875
b111010 ;
b111010 %
b111010 5
1(
#77500
b10000100 *
b10000100 3
0(
#78125
b111011 ;
b111011 %
b111011 5
1(
#78750
b10000011 *
b10000011 3
0(
#79375
b111100 ;
b111100 %
b111100 5
1(
#80000
b10000110 *
b10000110 3
0(
#80625
b111101 ;
b111101 %
b111101 5
1(
#81250
b10000111 *
b10000111 3
0(
#81875
b111110 ;
b111110 %
b111110 5
1(
#82500
b10000101 *
b10000101 3
0(
#83125
b111111 ;
b111111 %
b111111 5
1(
#83750
b10000100 *
b10000100 3
0(
#84375
b1000000 ;
b1000000 %
b1000000 5
1(
#85000
b10001001 *
b10001001 3
0(
#85625
b1000001 ;
b1000001 %
b1000001 5
1(
#86250
b10000001 *
b10000001 3
0(
#86875
b1000010 ;
b1000010 %
b1000010 5
1(
#87500
b10000011 *
b10000011 3
0(
#88125
b1000011 ;
b1000011 %
b1000011 5
1(
#88750
0(
#89375
b1000100 ;
b1000100 %
b1000100 5
1(
#90000
b10000010 *
b10000010 3
0(
#90625
b1000101 ;
b1000101 %
b1000101 5
1(
#91250
b10000011 *
b10000011 3
0(
#91875
b1000110 ;
b1000110 %
b1000110 5
1(
#92500
b10000001 *
b10000001 3
0(
#93125
b1000111 ;
b1000111 %
b1000111 5
1(
#93750
b10000010 *
b10000010 3
0(
#94375
b1001000 ;
b1001000 %
b1001000 5
1(
#95000
0(
#95625
b1001001 ;
b1001001 %
b1001001 5
1(
#96250
b10000001 *
b10000001 3
0(
#96875
b1001010 ;
b1001010 %
b1001010 5
1(
#97500
b1111111 *
b1111111 3
0(
#98125
b1001011 ;
b1001011 %
b1001011 5
1(
#98750
b10000000 *
b10000000 3
0(
#99375
b1001100 ;
b1001100 %
b1001100 5
1(
#100000
b1111011 *
b1111011 3
0(
#100625
b1001101 ;
b1001101 %
b1001101 5
1(
#101250
b1111001 *
b1111001 3
0(
#101875
b1001110 ;
b1001110 %
b1001110 5
1(
#102500
b1110011 *
b1110011 3
0(
#103125
b1001111 ;
b1001111 %
b1001111 5
1(
#103750
b1101011 *
b1101011 3
0(
#104375
b1010000 ;
b1010000 %
b1010000 5
1(
#105000
b1110001 *
b1110001 3
0(
#105625
b1010001 ;
b1010001 %
b1010001 5
1(
#106250
b10000100 *
b10000100 3
0(
#106875
b1010010 ;
b1010010 %
b1010010 5
1(
#107500
b10010001 *
b10010001 3
0(
#108125
b1010011 ;
b1010011 %
b1010011 5
1(
#108750
b10011010 *
b10011010 3
0(
#109375
b1010100 ;
b1010100 %
b1010100 5
1(
#110000
b10100000 *
b10100000 3
0(
#110625
b1010101 ;
b1010101 %
b1010101 5
1(
#111250
b10011111 *
b10011111 3
0(
#111875
b1010110 ;
b1010110 %
b1010110 5
1(
#112500
b10010110 *
b10010110 3
0(
#113125
b1010111 ;
b1010111 %
b1010111 5
1(
#113750
b10011001 *
b10011001 3
0(
#114375
b1011000 ;
b1011000 %
b1011000 5
1(
#115000
b10011010 *
b10011010 3
0(
#115625
b1011001 ;
b1011001 %
b1011001 5
1(
#116250
b10011011 *
b10011011 3
0(
#116875
b1011010 ;
b1011010 %
b1011010 5
1(
#117500
b10011101 *
b10011101 3
0(
#118125
b1011011 ;
b1011011 %
b1011011 5
1(
#118750
b10011010 *
b10011010 3
0(
#119375
b1011100 ;
b1011100 %
b1011100 5
1(
#120000
b10011001 *
b10011001 3
0(
#120625
b1011101 ;
b1011101 %
b1011101 5
1(
#121250
0(
#121875
b1011110 ;
b1011110 %
b1011110 5
1(
#122500
0(
#123125
b1011111 ;
b1011111 %
b1011111 5
1(
#123750
0(
#124375
b1100000 ;
b1100000 %
b1100000 5
1(
#125000
b10011100 *
b10011100 3
0(
#125625
b1100001 ;
b1100001 %
b1100001 5
1(
#126250
0(
#126875
b1100010 ;
b1100010 %
b1100010 5
1(
#127500
b10011110 *
b10011110 3
0(
#128125
b1100011 ;
b1100011 %
b1100011 5
1(
#128750
b10011011 *
b10011011 3
0(
#129375
b1100100 ;
b1100100 %
b1100100 5
1(
#130000
b10100001 *
b10100001 3
0(
#130625
b1100101 ;
b1100101 %
b1100101 5
1(
#131250
b11001001 *
b11001001 3
0(
#131875
b1100110 ;
b1100110 %
b1100110 5
1(
#132500
b11010101 *
b11010101 3
0(
#133125
b1100111 ;
b1100111 %
b1100111 5
1(
#133750
b11011010 *
b11011010 3
0(
#134375
b1101000 ;
b1101000 %
b1101000 5
1(
#135000
b11010101 *
b11010101 3
0(
#135625
b1101001 ;
b1101001 %
b1101001 5
1(
#136250
b10100000 *
b10100000 3
0(
#136875
b1101010 ;
b1101010 %
b1101010 5
1(
#137500
b1101000 *
b1101000 3
0(
#138125
b1101011 ;
b1101011 %
b1101011 5
1(
#138750
b1101100 *
b1101100 3
0(
#139375
b1101100 ;
b1101100 %
b1101100 5
1(
#140000
b1110101 *
b1110101 3
0(
#140625
b1101101 ;
b1101101 %
b1101101 5
1(
#141250
b1111001 *
b1111001 3
0(
#141875
b1101110 ;
b1101110 %
b1101110 5
1(
#142500
0(
#143125
b1101111 ;
b1101111 %
b1101111 5
1(
#143750
0(
#144375
b1110000 ;
b1110000 %
b1110000 5
1(
#145000
b1111101 *
b1111101 3
0(
#145625
b1110001 ;
b1110001 %
b1110001 5
1(
#146250
b1111001 *
b1111001 3
0(
#146875
b1110010 ;
b1110010 %
b1110010 5
1(
#147500
b1111010 *
b1111010 3
0(
#148125
b1110011 ;
b1110011 %
b1110011 5
1(
#148750
0(
#149375
b1110100 ;
b1110100 %
b1110100 5
1(
#150000
b1111100 *
b1111100 3
0(
#150625
b1110101 ;
b1110101 %
b1110101 5
1(
#151250
b1111101 *
b1111101 3
0(
#151875
b1110110 ;
b1110110 %
b1110110 5
1(
#152500
0(
#153125
b1110111 ;
b1110111 %
b1110111 5
1(
#153750
b1111001 *
b1111001 3
0(
#154375
b1111000 ;
b1111000 %
b1111000 5
1(
#155000
b1111110 *
b1111110 3
0(
#155625
b1111001 ;
b1111001 %
b1111001 5
1(
#156250
b1111111 *
b1111111 3
0(
#156875
b1111010 ;
b1111010 %
b1111010 5
1(
#157500
b1111101 *
b1111101 3
0(
#158125
b1111011 ;
b1111011 %
b1111011 5
1(
#158750
b1111100 *
b1111100 3
0(
#159375
b1111100 ;
b1111100 %
b1111100 5
1(
#160000
b1110101 *
b1110101 3
0(
#160625
b1111101 ;
b1111101 %
b1111101 5
1(
#161250
b1110111 *
b1110111 3
0(
#161875
b1111110 ;
b1111110 %
b1111110 5
1(
#162500
b10100000 *
b10100000 3
0(
#163125
b1111111 ;
b1111111 %
b1111111 5
1(
#163750
b10011100 *
b10011100 3
0(
#164375
b1 9
b1 :
b0 ;
b10000000 %
b10000000 5
1(
#165000
b10100000 *
b10100000 3
0(
#165625
b1 ;
b10000001 %
b10000001 5
1(
#166250
b10011111 *
b10011111 3
0(
#166875
b10 ;
b10000010 %
b10000010 5
1(
#167500
b10100000 *
b10100000 3
0(
#168125
b11 ;
b10000011 %
b10000011 5
1(
#168750
b10011011 *
b10011011 3
0(
#169375
b100 ;
b10000100 %
b10000100 5
1(
#170000
b10011100 *
b10011100 3
0(
#170625
b101 ;
b10000101 %
b10000101 5
1(
#171250
b10011010 *
b10011010 3
0(
#171875
b110 ;
b10000110 %
b10000110 5
1(
#172500
0(
#173125
b111 ;
b10000111 %
b10000111 5
1(
#173750
b10011011 *
b10011011 3
0(
#174375
b1000 ;
b10001000 %
b10001000 5
1(
#175000
0(
#175625
b1001 ;
b10001001 %
b10001001 5
1(
#176250
b10100010 *
b10100010 3
0(
#176875
b1010 ;
b10001010 %
b10001010 5
1(
#177500
b10101000 *
b10101000 3
0(
#178125
b1011 ;
b10001011 %
b10001011 5
1(
#178750
b10101101 *
b10101101 3
0(
#179375
b1100 ;
b10001100 %
b10001100 5
1(
#180000
b10101100 *
b10101100 3
0(
#180625
b1101 ;
b10001101 %
b10001101 5
1(
#181250
b10100011 *
b10100011 3
0(
#181875
b1110 ;
b10001110 %
b10001110 5
1(
#182500
b10010000 *
b10010000 3
0(
#183125
b1111 ;
b10001111 %
b10001111 5
1(
#183750
b1110100 *
b1110100 3
0(
#184375
b10000 ;
b10010000 %
b10010000 5
1(
#185000
b1011110 *
b1011110 3
0(
#185625
b10001 ;
b10010001 %
b10010001 5
1(
#186250
0(
#186875
b10010 ;
b10010010 %
b10010010 5
1(
#187500
b1100100 *
b1100100 3
0(
#188125
b10011 ;
b10010011 %
b10010011 5
1(
#188750
b1101011 *
b1101011 3
0(
#189375
b10100 ;
b10010100 %
b10010100 5
1(
#190000
b1101001 *
b1101001 3
0(
#190625
b10101 ;
b10010101 %
b10010101 5
1(
#191250
0(
#191875
b10110 ;
b10010110 %
b10010110 5
1(
#192500
0(
#193125
b10111 ;
b10010111 %
b10010111 5
1(
#193750
b1101011 *
b1101011 3
0(
#194375
b11000 ;
b10011000 %
b10011000 5
1(
#195000
0(
#195625
b11001 ;
b10011001 %
b10011001 5
1(
#196250
b1101010 *
b1101010 3
0(
#196875
b11010 ;
b10011010 %
b10011010 5
1(
#197500
b1101110 *
b1101110 3
0(
#198125
b11011 ;
b10011011 %
b10011011 5
1(
#198750
b1110110 *
b1110110 3
0(
#199375
b11100 ;
b10011100 %
b10011100 5
1(
#200000
b1111001 *
b1111001 3
0(
#200625
b11101 ;
b10011101 %
b10011101 5
1(
#201250
b1111100 *
b1111100 3
0(
#201875
b11110 ;
b10011110 %
b10011110 5
1(
#202500
b1111101 *
b1111101 3
0(
#203125
b11111 ;
b10011111 %
b10011111 5
1(
#203750
b1111110 *
b1111110 3
0(
#204375
b100000 ;
b10100000 %
b10100000 5
1(
#205000
b10000011 *
b10000011 3
0(
#205625
b100001 ;
b10100001 %
b10100001 5
1(
#206250
b10000010 *
b10000010 3
0(
#206875
b100010 ;
b10100010 %
b10100010 5
1(
#207500
b10000011 *
b10000011 3
0(
#208125
b100011 ;
b10100011 %
b10100011 5
1(
#208750
0(
#209375
b100100 ;
b10100100 %
b10100100 5
1(
#210000
0(
#210625
b100101 ;
b10100101 %
b10100101 5
1(
#211250
0(
#211875
b100110 ;
b10100110 %
b10100110 5
1(
#212500
b10000010 *
b10000010 3
0(
#213125
b100111 ;
b10100111 %
b10100111 5
1(
#213750
b10000101 *
b10000101 3
0(
#214375
b101000 ;
b10101000 %
b10101000 5
1(
#215000
0(
#215625
b101001 ;
b10101001 %
b10101001 5
1(
#216250
b10000111 *
b10000111 3
0(
#216875
b101010 ;
b10101010 %
b10101010 5
1(
#217500
b10000101 *
b10000101 3
0(
#218125
b101011 ;
b10101011 %
b10101011 5
1(
#218750
b10000110 *
b10000110 3
0(
#219375
b101100 ;
b10101100 %
b10101100 5
1(
#220000
0(
#220625
b101101 ;
b10101101 %
b10101101 5
1(
#221250
b10000100 *
b10000100 3
0(
#221875
b101110 ;
b10101110 %
b10101110 5
1(
#222500
0(
#223125
b101111 ;
b10101111 %
b10101111 5
1(
#223750
0(
#224375
b110000 ;
b10110000 %
b10110000 5
1(
#225000
b10000110 *
b10000110 3
0(
#225625
b110001 ;
b10110001 %
b10110001 5
1(
#226250
b10000101 *
b10000101 3
0(
#226875
b110010 ;
b10110010 %
b10110010 5
1(
#227500
b10000110 *
b10000110 3
0(
#228125
b110011 ;
b10110011 %
b10110011 5
1(
#228750
b10000101 *
b10000101 3
0(
#229375
b110100 ;
b10110100 %
b10110100 5
1(
#230000
b10000110 *
b10000110 3
0(
#230625
b110101 ;
b10110101 %
b10110101 5
1(
#231250
b10000100 *
b10000100 3
0(
#231875
b110110 ;
b10110110 %
b10110110 5
1(
#232500
b10000010 *
b10000010 3
0(
#233125
b110111 ;
b10110111 %
b10110111 5
1(
#233750
b10000011 *
b10000011 3
0(
#234375
b111000 ;
b10111000 %
b10111000 5
1(
#235000
b10000100 *
b10000100 3
0(
#235625
b111001 ;
b10111001 %
b10111001 5
1(
#236250
0(
#236875
b111010 ;
b10111010 %
b10111010 5
1(
#237500
b10000010 *
b10000010 3
0(
#238125
b111011 ;
b10111011 %
b10111011 5
1(
#238750
b10000011 *
b10000011 3
0(
#239375
b111100 ;
b10111100 %
b10111100 5
1(
#240000
b10000101 *
b10000101 3
0(
#240625
b111101 ;
b10111101 %
b10111101 5
1(
#241250
0(
#241875
b111110 ;
b10111110 %
b10111110 5
1(
#242500
b10000100 *
b10000100 3
0(
#243125
b111111 ;
b10111111 %
b10111111 5
1(
#243750
0(
#244375
b1000000 ;
b11000000 %
b11000000 5
1(
#245000
b10000110 *
b10000110 3
0(
#245625
b1000001 ;
b11000001 %
b11000001 5
1(
#246250
b10000010 *
b10000010 3
0(
#246875
b1000010 ;
b11000010 %
b11000010 5
1(
#247500
b10000001 *
b10000001 3
0(
#248125
b1000011 ;
b11000011 %
b11000011 5
1(
#248750
b10000010 *
b10000010 3
0(
#249375
b1000100 ;
b11000100 %
b11000100 5
1(
#250000
b10000001 *
b10000001 3
0(
#250625
b1000101 ;
b11000101 %
b11000101 5
1(
#251250
b10000010 *
b10000010 3
0(
#251875
b1000110 ;
b11000110 %
b11000110 5
1(
#252500
b1111111 *
b1111111 3
0(
#253125
b1000111 ;
b11000111 %
b11000111 5
1(
#253750
b10000010 *
b10000010 3
0(
#254375
b1001000 ;
b11001000 %
b11001000 5
1(
#255000
0(
#255625
b1001001 ;
b11001001 %
b11001001 5
1(
#256250
b10000001 *
b10000001 3
0(
#256875
b1001010 ;
b11001010 %
b11001010 5
1(
#257500
b10000000 *
b10000000 3
0(
#258125
b1001011 ;
b11001011 %
b11001011 5
1(
#258750
b1111110 *
b1111110 3
0(
#259375
b1001100 ;
b11001100 %
b11001100 5
1(
#260000
b1111011 *
b1111011 3
0(
#260625
b1001101 ;
b11001101 %
b11001101 5
1(
#261250
b1111000 *
b1111000 3
0(
#261875
b1001110 ;
b11001110 %
b11001110 5
1(
#262500
b1110011 *
b1110011 3
0(
#263125
b1001111 ;
b11001111 %
b11001111 5
1(
#263750
b1101011 *
b1101011 3
0(
#264375
b1010000 ;
b11010000 %
b11010000 5
1(
#265000
b1101110 *
b1101110 3
0(
#265625
b1010001 ;
b11010001 %
b11010001 5
1(
#266250
b10000001 *
b10000001 3
0(
#266875
b1010010 ;
b11010010 %
b11010010 5
1(
#267500
b10001111 *
b10001111 3
0(
#268125
b1010011 ;
b11010011 %
b11010011 5
1(
#268750
b10011001 *
b10011001 3
0(
#269375
b1010100 ;
b11010100 %
b11010100 5
1(
#270000
b10011111 *
b10011111 3
0(
#270625
b1010101 ;
b11010101 %
b11010101 5
1(
#271250
b10011110 *
b10011110 3
0(
#271875
b1010110 ;
b11010110 %
b11010110 5
1(
#272500
b10011000 *
b10011000 3
0(
#273125
b1010111 ;
b11010111 %
b11010111 5
1(
#273750
0(
#274375
b1011000 ;
b11011000 %
b11011000 5
1(
#275000
0(
#275625
b1011001 ;
b11011001 %
b11011001 5
1(
#276250
b10011010 *
b10011010 3
0(
#276875
b1011010 ;
b11011010 %
b11011010 5
1(
#277500
b10011100 *
b10011100 3
0(
#278125
b1011011 ;
b11011011 %
b11011011 5
1(
#278750
b10011010 *
b10011010 3
0(
#279375
b1011100 ;
b11011100 %
b11011100 5
1(
#280000
b10011001 *
b10011001 3
0(
#280625
b1011101 ;
b11011101 %
b11011101 5
1(
#281250
0(
#281875
b1011110 ;
b11011110 %
b11011110 5
1(
#282500
b10011010 *
b10011010 3
0(
#283125
b1011111 ;
b11011111 %
b11011111 5
1(
#283750
0(
#284375
b1100000 ;
b11100000 %
b11100000 5
1(
#285000
0(
#285625
b1100001 ;
b11100001 %
b11100001 5
1(
#286250
b10011011 *
b10011011 3
0(
#286875
b1100010 ;
b11100010 %
b11100010 5
1(
#287500
b10011101 *
b10011101 3
0(
#288125
b1100011 ;
b11100011 %
b11100011 5
1(
#288750
b10011011 *
b10011011 3
0(
#289375
b1100100 ;
b11100100 %
b11100100 5
1(
#290000
b10011100 *
b10011100 3
0(
#290625
b1100101 ;
b11100101 %
b11100101 5
1(
#291250
b11000010 *
b11000010 3
0(
#291875
b1100110 ;
b11100110 %
b11100110 5
1(
#292500
b11010100 *
b11010100 3
0(
#293125
b1100111 ;
b11100111 %
b11100111 5
1(
#293750
b11011010 *
b11011010 3
0(
#294375
b1101000 ;
b11101000 %
b11101000 5
1(
#295000
b11010111 *
b11010111 3
0(
#295625
b1101001 ;
b11101001 %
b11101001 5
1(
#296250
b10110001 *
b10110001 3
0(
#296875
b1101010 ;
b11101010 %
b11101010 5
1(
#297500
b1101100 *
b1101100 3
0(
#298125
b1101011 ;
b11101011 %
b11101011 5
1(
#298750
b1101011 *
b1101011 3
0(
#299375
b1101100 ;
b11101100 %
b11101100 5
1(
#300000
b1110100 *
b1110100 3
0(
#300625
b1101101 ;
b11101101 %
b11101101 5
1(
#301250
b1110111 *
b1110111 3
0(
#301875
b1101110 ;
b11101110 %
b11101110 5
1(
#302500
b1111001 *
b1111001 3
0(
#303125
b1101111 ;
b11101111 %
b11101111 5
1(
#303750
b1111010 *
b1111010 3
0(
#304375
b1110000 ;
b11110000 %
b11110000 5
1(
#305000
b1111100 *
b1111100 3
0(
#305625
b1110001 ;
b11110001 %
b11110001 5
1(
#306250
b1111010 *
b1111010 3
0(
#306875
b1110010 ;
b11110010 %
b11110010 5
1(
#307500
0(
#308125
b1110011 ;
b11110011 %
b11110011 5
1(
#308750
b1111100 *
b1111100 3
0(
#309375
b1110100 ;
b11110100 %
b11110100 5
1(
#310000
b1111101 *
b1111101 3
0(
#310625
b1110101 ;
b11110101 %
b11110101 5
1(
#311250
b1111100 *
b1111100 3
0(
#311875
b1110110 ;
b11110110 %
b11110110 5
1(
#312500
0(
#313125
b1110111 ;
b11110111 %
b11110111 5
1(
#313750
b1111010 *
b1111010 3
0(
#314375
b1111000 ;
b11111000 %
b11111000 5
1(
#315000
b1111100 *
b1111100 3
0(
#315625
b1111001 ;
b11111001 %
b11111001 5
1(
#316250
b1111111 *
b1111111 3
0(
#316875
b1111010 ;
b11111010 %
b11111010 5
1(
#317500
b1111110 *
b1111110 3
0(
#318125
b1111011 ;
b11111011 %
b11111011 5
1(
#318750
b1111101 *
b1111101 3
0(
#319375
b1111100 ;
b11111100 %
b11111100 5
1(
#320000
b1111000 *
b1111000 3
0(
#320625
b1111101 ;
b11111101 %
b11111101 5
1(
#321250
b1111101 *
b1111101 3
0(
#321875
b1111110 ;
b11111110 %
b11111110 5
1(
#322500
b10000001 *
b10000001 3
0(
#323125
b1111111 ;
b11111111 %
b11111111 5
1(
#323750
b1100011 *
b1100011 3
0(
#324375
b10 9
b10 :
b0 ;
b100000000 %
b100000000 5
1(
#325000
b10011101 *
b10011101 3
0(
#325625
b1 ;
b100000001 %
b100000001 5
1(
#326250
b10011100 *
b10011100 3
0(
#326875
b10 ;
b100000010 %
b100000010 5
1(
#327500
b10011110 *
b10011110 3
0(
#328125
b11 ;
b100000011 %
b100000011 5
1(
#328750
b10011101 *
b10011101 3
0(
#329375
b100 ;
b100000100 %
b100000100 5
1(
#330000
b10011100 *
b10011100 3
0(
#330625
b101 ;
b100000101 %
b100000101 5
1(
#331250
0(
#331875
b110 ;
b100000110 %
b100000110 5
1(
#332500
b10011010 *
b10011010 3
0(
#333125
b111 ;
b100000111 %
b100000111 5
1(
#333750
0(
#334375
b1000 ;
b100001000 %
b100001000 5
1(
#335000
b10011100 *
b10011100 3
0(
#335625
b1001 ;
b100001001 %
b100001001 5
1(
#336250
b10100100 *
b10100100 3
0(
#336875
b1010 ;
b100001010 %
b100001010 5
1(
#337500
b10101010 *
b10101010 3
0(
#338125
b1011 ;
b100001011 %
b100001011 5
1(
#338750
b10101011 *
b10101011 3
0(
#339375
b1100 ;
b100001100 %
b100001100 5
1(
#340000
b10101010 *
b10101010 3
0(
#340625
b1101 ;
b100001101 %
b100001101 5
1(
#341250
b10100000 *
b10100000 3
0(
#341875
b1110 ;
b100001110 %
b100001110 5
1(
#342500
b10001100 *
b10001100 3
0(
#343125
b1111 ;
b100001111 %
b100001111 5
1(
#343750
b1110100 *
b1110100 3
0(
#344375
b10000 ;
b100010000 %
b100010000 5
1(
#345000
b1011101 *
b1011101 3
0(
#345625
b10001 ;
b100010001 %
b100010001 5
1(
#346250
b1011100 *
b1011100 3
0(
#346875
b10010 ;
b100010010 %
b100010010 5
1(
#347500
b1100011 *
b1100011 3
0(
#348125
b10011 ;
b100010011 %
b100010011 5
1(
#348750
b1100110 *
b1100110 3
0(
#349375
b10100 ;
b100010100 %
b100010100 5
1(
#350000
b1101000 *
b1101000 3
0(
#350625
b10101 ;
b100010101 %
b100010101 5
1(
#351250
b1101001 *
b1101001 3
0(
#351875
b10110 ;
b100010110 %
b100010110 5
1(
#352500
0(
#353125
b10111 ;
b100010111 %
b100010111 5
1(
#353750
b1101000 *
b1101000 3
0(
#354375
b11000 ;
b100011000 %
b100011000 5
1(
#355000
b1101001 *
b1101001 3
0(
#355625
b11001 ;
b100011001 %
b100011001 5
1(
#356250
b1101011 *
b1101011 3
0(
#356875
b11010 ;
b100011010 %
b100011010 5
1(
#357500
b1101111 *
b1101111 3
0(
#358125
b11011 ;
b100011011 %
b100011011 5
1(
#358750
b1110100 *
b1110100 3
0(
#359375
b11100 ;
b100011100 %
b100011100 5
1(
#360000
b1111000 *
b1111000 3
0(
#360625
b11101 ;
b100011101 %
b100011101 5
1(
#361250
b1111100 *
b1111100 3
0(
#361875
b11110 ;
b100011110 %
b100011110 5
1(
#362500
b1111101 *
b1111101 3
0(
#363125
b11111 ;
b100011111 %
b100011111 5
1(
#363750
b1111111 *
b1111111 3
0(
#364375
b100000 ;
b100100000 %
b100100000 5
1(
#365000
b10000000 *
b10000000 3
0(
#365625
b100001 ;
b100100001 %
b100100001 5
1(
#366250
b10000001 *
b10000001 3
0(
#366875
b100010 ;
b100100010 %
b100100010 5
1(
#367500
b10000010 *
b10000010 3
0(
#368125
b100011 ;
b100100011 %
b100100011 5
1(
#368750
0(
#369375
b100100 ;
b100100100 %
b100100100 5
1(
#370000
b10000011 *
b10000011 3
0(
#370625
b100101 ;
b100100101 %
b100100101 5
1(
#371250
b10000010 *
b10000010 3
0(
#371875
b100110 ;
b100100110 %
b100100110 5
1(
#372500
0(
#373125
b100111 ;
b100100111 %
b100100111 5
1(
#373750
b10000100 *
b10000100 3
0(
#374375
b101000 ;
b100101000 %
b100101000 5
1(
#375000
b10000011 *
b10000011 3
0(
#375625
b101001 ;
b100101001 %
b100101001 5
1(
#376250
b10000110 *
b10000110 3
0(
